1	6205.995386
2	6206.149322
3	6206.185630
4	6206.230656
5	6206.324567
6	6206.324586
7	6206.338545
8	6206.398382
9	6206.475599
10	6206.523898
11	6206.523918
12	6206.556985
13	6206.715366
14	6206.715386
15	6206.715398
16	6206.916562
17	6206.940782
18	6206.940799
19	6206.953208
20	6207.179054
21	6207.215388
22	6207.215405
23	6207.215415
24	6207.414232
25	6207.426345
26	6207.450560
27	6207.493614
28	6207.573836
29	6207.616265
30	6207.616282
31	6207.670568
32	6207.761168
33	6207.794262
34	6207.824249
35	6207.968295
36	6207.992516
37	6207.992533
38	6208.096920
39	6208.177587
40	6208.213924
41	6208.250264
42	6208.309437
43	6208.351866
44	6208.363918
45	6208.400781
46	6208.509415
47	6208.533586
48	6208.545697
49	6208.558126
50	6208.732620
51	6208.750766
52	6208.762876
53	6208.762892
54	6209.065397
55	6209.065427
56	6209.077496
57	6209.077512
58	6209.229915
59	6209.290428
60	6209.302539
61	6209.302555
62	6209.390565
63	6209.501655
64	6209.501678
65	6209.513758
66	6209.622091
67	6209.683236
68	6209.683256
69	6209.709791
70	6209.815075
71	6209.887464
72	6209.887484
73	6209.899573
74	6209.939010
75	6210.068534
76	6210.068574
77	6210.068585
78	6210.336399
79	6210.372720
80	6210.372737
81	6210.372749
82	6210.532692
83	6210.556890
84	6210.568946
85	6210.661744
86	6210.731860
87	6210.768409
88	6210.768425
89	6210.821753
90	6210.910886
91	6210.947223
92	6210.959335
93	6211.129080
94	6211.129101
95	6211.129112
96	6211.159213
97	6211.295646
98	6211.295663
99	6211.307762
100	6211.382687
101	6211.500575
102	6211.512626
103	6211.512644
104	6211.537638
105	6211.663104
106	6211.752807
107	6211.752824
108	6211.782798
109	6211.808029
110	6211.902269
111	6211.956487
112	6212.005196
113	6212.005213
114	6212.111900
115	6212.129961
116	6212.218290
117	6212.218309
118	6212.307896
119	6212.307912
120	6212.410143
121	6212.410161
122	6212.470972
123	6212.495462
124	6212.563350
125	6212.563367
126	6212.626663
127	6212.807894
128	6212.807910
129	6212.807921
130	6212.820006
131	6212.996488
132	6212.996505
133	6213.020687
134	6213.020703
135	6213.129687
136	6213.201866
137	6213.201882
138	6213.263173
139	6213.457502
140	6213.457525
141	6213.459327
142	6213.459343
143	6213.621939
144	6213.634365
145	6213.634383
146	6213.646737
147	6213.800194
148	6213.837273
149	6213.837300
150	6213.837312
151	6214.016594
152	6214.053394
153	6214.053412
154	6214.065550
155	6214.203702
156	6214.215797
157	6214.227909
158	6214.271859
159	6214.406064
160	6214.430584
161	6214.430603
162	6214.449011
163	6214.627536
164	6214.629343
165	6214.641777
166	6214.671445
167	6214.734588
168	6214.808684
169	6214.820781
170	6214.891514
171	6214.891549
172	6215.026873
173	6215.075304
174	6215.075321
175	6215.152008
176	6215.188338
177	6215.225009
178	6215.237053
179	6215.351608
180	6215.388458
181	6215.388484
182	6215.401051
183	6215.493310
184	6215.541738
185	6215.553843
186	6215.651599
187	6215.672446
188	6215.721776
189	6215.733823
190	6215.824788
191	6215.824830
192	6215.861357
193	6216.004548
194	6216.004565
195	6216.010317
196	6216.092328
197	6216.199498
198	6216.199537
199	6216.199548
200	6216.252638
201	6216.319482
202	6216.343951
203	6216.406622
204	6216.406639
205	6216.475781
206	6216.489530
207	6216.555027
208	6216.575440
209	6217.024302
210	6217.024336
211	6217.066370
212	6217.078477
213	6217.353303
214	6217.353322
215	6217.353333
216	6217.353343
217	6217.539244
218	6217.539267
219	6217.539279
220	6217.576493
221	6217.701666
222	6217.750381
223	6217.750397
224	6217.840258
225	6217.966382
226	6217.966399
227	6217.966409
228	6218.140348
229	6218.164575
230	6218.164591
231	6218.189115
232	6218.306197
233	6218.318629
234	6218.342793
235	6218.379780
236	6218.493101
237	6218.493118
238	6218.505214
239	6218.580798
240	6218.686863
241	6218.698966
242	6218.698982
243	6218.738273
244	6218.890528
245	6218.902620
246	6218.902637
247	6218.986486
248	6219.061042
249	6219.129650
250	6219.129667
251	6219.248931
252	6219.248948
253	6219.303883
254	6219.303900
255	6219.418126
256	6219.418143
257	6219.476524
258	6219.547550
259	6219.581967
260	6219.620947
261	6219.682974
262	6219.722857
263	6219.733393
264	6219.823034
265	6219.834464
266	6219.862317
267	6219.951634
268	6220.011221
269	6220.011237
270	6220.058665
271	6220.058681
272	6220.218874
273	6220.218890
274	6220.231467
275	6220.374131
276	6220.407264
277	6220.470546
278	6220.482603
279	6220.519261
280	6220.658251
281	6220.658268
282	6220.694824
283	6220.745445
284	6220.781784
285	6220.894583
286	6220.894611
287	6220.894621
288	6220.931227
289	6221.042425
290	6221.042442
291	6221.091311
292	6221.091327
293	6221.177210
294	6221.201753
295	6221.262263
296	6221.262279
297	6221.321662
298	6221.347711
299	6221.437531
300	6221.437551
301	6221.528458
302	6221.567770
303	6221.644749
304	6221.669295
305	6221.693785
306	6221.693802
307	6221.832728
308	6221.881155
309	6221.881171
310	6221.993456
311	6221.993473
312	6222.065228
313	6222.108540
314	6222.133246
315	6222.157514
316	6222.270481
317	6222.270498
318	6222.359164
319	6222.371275
320	6222.457735
321	6222.531291
322	6222.548461
323	6222.611484
324	6222.611501
325	6222.684404
326	6222.684421
327	6222.802549
328	6222.802566
329	6222.851532
330	6222.851549
331	6222.962335
332	6223.068003
333	6223.068037
334	6223.068048
335	6223.117022
336	6223.222975
337	6223.247199
338	6223.271369
339	6223.271386
340	6223.465976
341	6223.472026
342	6223.484142
343	6223.500923
344	6223.617687
345	6223.664134
346	6223.697633
347	6223.713268
348	6223.770463
349	6223.850523
350	6223.875015
351	6223.892820
352	6223.988629
353	6224.025283
354	6224.049981
355	6224.062093
356	6224.110541
357	6224.225874
358	6224.250410
359	6224.250427
360	6224.320389
361	6224.371383
362	6224.444582
363	6224.444599
364	6224.537409
365	6224.585850
366	6224.622451
367	6224.634564
368	6224.721382
369	6224.721399
370	6224.837105
371	6224.849537
372	6224.861596
373	6224.925589
374	6225.034275
375	6225.034292
376	6225.034302
377	6225.152297
378	6225.219654
379	6225.231764
380	6225.243876
381	6225.441798
382	6225.466230
383	6225.478336
384	6225.478352
385	6225.637957
386	6225.650114
387	6225.650130
388	6225.726131
389	6225.799334
390	6225.823824
391	6225.823841
392	6225.860156
393	6226.058919
394	6226.058937
395	6226.058948
396	6226.058958
397	6226.217236
398	6226.242039
399	6226.242055
400	6226.307995
401	6226.433285
402	6226.433301
403	6226.445394
404	6226.471115
405	6226.580163
406	6226.604966
407	6226.653365
408	6226.719799
409	6226.729127
410	6226.746526
411	6226.813007
412	6226.866006
413	6226.916629
414	6226.916645
415	6227.019504
416	6227.068273
417	6227.080650
418	6227.116268
419	6227.217414
420	6227.217431
421	6227.241956
422	6227.267225
423	6227.448378
424	6227.448403
425	6227.448414
426	6227.605597
427	6227.629823
428	6227.641933
429	6227.666475
430	6227.790668
431	6227.790685
432	6227.802822
433	6227.876597
434	6227.986396
435	6227.986412
436	6227.998510
437	6228.013344
438	6228.195164
439	6228.195181
440	6228.195191
441	6228.241054
442	6228.317032
443	6228.396811
444	6228.430576
445	6228.430592
446	6228.547904
447	6228.578180
448	6228.631670
449	6228.650374
450	6228.742155
451	6228.742172
452	6228.829409
453	6228.829426
454	6228.921792
455	6228.921808
456	6228.988267
457	6229.116475
458	6229.116493
459	6229.128582
460	6229.159999
461	6229.353162
462	6229.414265
463	6229.420307
464	6229.444865
465	6229.485636
466	6229.601772
467	6229.601789
468	6229.612315
469	6229.703649
470	6229.764793
471	6229.764810
472	6229.868960
473	6229.868976
474	6229.939992
475	6229.952424
476	6229.992151
477	6230.076909
478	6230.076926
479	6230.113187
480	6230.154719
481	6230.225559
482	6230.261900
483	6230.310931
484	6230.310947
485	6230.476332
486	6230.476350
487	6230.476361
488	6230.537364
489	6230.711426
490	6230.711443
491	6230.711454
492	6230.767335
493	6230.887485
494	6230.887508
495	6230.935973
496	6231.016682
497	6231.101889
498	6231.101905
499	6231.114004
500	6231.195792
501	6231.302138
502	6231.307911
503	6231.307927
504	6231.467838
505	6231.516285
506	6231.552615
507	6231.552631
508	6231.699409
509	6231.699430
510	6231.723628
511	6231.773907
512	6231.911997
513	6231.912017
514	6231.936485
515	6231.948595
516	6232.067800
517	6232.092021
518	6232.147545
519	6232.185883
520	6232.246135
521	6232.276127
522	6232.312049
523	6232.421570
524	6232.433629
525	6232.433645
526	6232.582024
527	6232.582041
528	6232.606549
529	6232.624954
530	6232.736010
531	6232.736027
532	6232.754213
533	6232.790974
534	6232.896197
535	6232.896215
536	6232.928153
537	6233.130668
538	6233.130684
539	6233.166951
540	6233.166968
541	6233.349973
542	6233.349990
543	6233.356030
544	6233.368144
545	6233.554051
546	6233.566484
547	6233.566501
548	6233.668453
549	6233.771936
550	6233.771953
551	6233.771963
552	6233.847240
553	6233.934076
554	6233.960044
555	6233.981896
556	6234.045539
557	6234.068737
558	6234.143656
559	6234.155766
560	6234.211349
561	6234.247023
562	6234.307585
563	6234.307602
564	6234.424462
565	6234.453834
566	6234.468187
567	6234.487349
568	6234.582489
569	6234.612479
570	6234.636973
571	6234.702613
572	6234.728456
573	6234.796103
574	6234.796119
575	6234.932430
576	6234.932452
577	6234.942687
578	6234.954439
579	6235.168806
580	6235.168823
581	6235.168834
582	6235.293121
583	6235.402066
584	6235.402083
585	6235.402093
586	6235.510020
587	6235.614950
588	6235.614967
589	6235.639494
590	6235.760820
591	6235.772937
592	6235.772953
593	6235.785364
594	6235.954624
595	6235.954655
596	6235.979078
597	6236.026975
598	6236.133690
599	6236.170344
600	6236.219844
601	6236.219861
602	6236.354048
603	6236.354066
604	6236.399282
605	6236.435716
606	6236.521521
607	6236.546014
608	6236.564440
609	6236.600777
610	6236.765887
611	6236.765904
612	6236.765914
613	6236.807206
614	6236.920602
615	6236.920619
616	6236.944824
617	6237.087596
618	6237.087615
619	6237.143606
620	6237.143622
621	6237.213154
622	6237.237959
623	6237.372517
624	6237.372534
625	6237.372544
626	6237.396688
627	6237.604956
628	6237.604973
629	6237.629182
630	6237.691352
631	6237.767236
632	6237.815683
633	6237.828112
634	6237.883233
635	6237.913430
636	6237.994179
637	6238.019521
638	6238.054002
639	6238.104197
640	6238.177914
641	6238.190350
642	6238.239062
643	6238.263971
644	6238.368431
645	6238.392630
646	6238.392647
647	6238.435497
648	6238.568688
649	6238.568727
650	6238.580772
651	6238.660942
652	6238.740047
653	6238.764852
654	6238.777226
655	6238.943037
656	6238.979371
657	6238.979388
658	6239.003866
659	6239.063538
660	6239.123097
661	6239.159696
662	6239.171805
663	6239.264679
664	6239.289168
665	6239.338144
666	6239.450978
667	6239.487842
668	6239.514641
669	6239.526316
670	6239.671606
671	6239.695828
672	6239.720371
673	6239.749250
674	6239.916089
675	6239.916107
676	6239.928514
677	6239.953404
678	6240.077143
679	6240.077161
680	6240.136293
681	6240.136309
682	6240.208035
683	6240.218686
684	6240.295665
685	6240.318305
686	6240.351004
687	6240.433435
688	6240.461239
689	6240.475391
690	6240.544792
691	6240.647149
692	6240.647165
693	6240.660960
694	6240.832050
695	6240.856593
696	6240.856609
697	6240.872538
698	6241.016987
699	6241.029093
700	6241.029109
701	6241.097879
702	6241.267842
703	6241.267859
704	6241.267869
705	6241.286589
706	6241.456592
707	6241.456613
708	6241.468702
709	6241.492887
710	6241.697017
711	6241.697035
712	6241.697046
713	6241.756855
714	6241.902966
715	6241.902984
716	6241.902994
717	6241.978473
718	6242.039010
719	6242.130642
720	6242.130659
721	6242.199351
722	6242.303333
723	6242.303349
724	6242.315768
725	6242.339935
726	6242.455553
727	6242.540535
728	6242.540553
729	6242.617105
730	6242.800777
731	6242.800794
732	6242.800805
733	6242.800815
734	6243.003659
735	6243.026456
736	6243.038549
737	6243.087900
738	6243.215842
739	6243.215859
740	6243.240069
741	6243.377573
742	6243.377590
743	6243.426549
744	6243.426565
745	6243.625733
746	6243.625749
747	6243.637844
748	6243.656006
749	6243.869566
750	6243.869587
751	6243.869597
752	6243.903730
753	6244.074824
754	6244.074842
755	6244.074853
756	6244.118613
757	6244.235392
758	6244.235409
759	6244.235419
760	6244.303206
761	6244.431879
762	6244.444320
763	6244.444337
764	6244.522108
765	6244.627752
766	6244.627769
767	6244.627779
768	6244.719888
769	6244.738055
770	6244.784799
771	6244.905044
772	6244.905061
773	6244.942371
774	6244.948139
775	6245.133039
776	6245.151205
777	6245.151222
778	6245.175436
779	6245.391150
780	6245.391167
781	6245.391178
782	6245.619433
783	6245.619453
784	6245.619464
785	6245.619474
786	6245.745207
787	6245.806027
788	6245.806044
789	6245.806054
790	6245.945748
791	6246.030531
792	6246.030560
793	6246.030570
794	6246.222066
795	6246.234227
796	6246.246279
797	6246.246295
798	6246.439890
799	6246.476489
800	6246.500717
801	6246.500735
802	6246.622195
803	6246.634248
804	6246.683442
805	6246.781758
806	6246.812428
807	6246.812444
808	6246.858952
809	6246.951985
810	6247.019398
811	6247.055730
812	6247.055747
813	6247.154443
814	6247.262278
815	6247.262295
816	6247.274710
817	6247.352562
818	6247.427189
819	6247.475642
820	6247.475659
821	6247.550601
822	6247.605404
823	6247.654924
824	6247.654940
825	6247.706240
826	6247.805658
827	6247.835937
828	6247.848054
829	6247.899262
830	6248.066748
831	6248.078852
832	6248.115190
833	6248.187562
834	6248.248655
835	6248.248671
836	6248.272877
837	6248.340543
838	6248.443936
839	6248.456043
840	6248.456060
841	6248.606136
842	6248.606154
843	6248.630625
844	6248.655169
845	6248.706859
846	6248.767686
847	6248.800481
848	6248.824711
849	6248.891619
850	6248.912115
851	6249.068379
852	6249.068404
853	6249.117301
854	6249.117319
855	6249.281548
856	6249.281566
857	6249.324469
858	6249.324486
859	6249.421029
860	6249.582887
861	6249.582910
862	6249.582921
863	6249.582931
864	6249.776630
865	6249.776648
866	6249.776659
867	6249.885488
868	6249.946989
869	6249.959104
870	6249.983326
871	6250.129349
872	6250.153509
873	6250.153525
874	6250.177998
875	6250.346803
876	6250.383457
877	6250.383473
878	6250.407888
879	6250.509166
880	6250.595863
881	6250.620089
882	6250.632517
883	6250.735380
884	6250.808636
885	6250.808652
886	6250.820695
887	6250.975795
888	6250.975816
889	6251.012124
890	6251.012140
891	6251.119137
892	6251.143363
893	6251.192600
894	6251.236663
895	6251.322388
896	6251.399595
897	6251.411706
898	6251.423822
899	6251.519241
900	6251.567951
901	6251.617425
902	6251.617442
903	6251.691190
904	6251.735343
905	6251.802199
906	6251.802216
907	6251.845629
908	6251.895897
909	6251.995854
910	6252.036314
911	6252.036331
912	6252.107599
913	6252.189576
914	6252.201678
915	6252.201694
916	6252.273440
917	6252.370648
918	6252.382757
919	6252.382773
920	6252.525869
921	6252.550091
922	6252.550108
923	6252.550118
924	6252.742510
925	6252.767048
926	6252.779592
927	6252.880358
928	6252.923020
929	6252.971466
930	6252.983576
931	6253.105682
932	6253.105698
933	6253.145410
934	6253.145427
935	6253.271847
936	6253.277904
937	6253.355572
938	6253.405803
939	6253.441090
940	6253.481330
941	6253.525131
942	6253.537501
943	6253.637247
944	6253.703221
945	6253.741097
946	6253.749123
947	6253.795671
948	6253.863366
949	6253.863382
950	6253.952745
951	6253.952762
952	6254.027569
953	6254.105998
954	6254.106016
955	6254.146319
956	6254.256035
957	6254.256052
958	6254.281417
959	6254.394477
960	6254.412813
961	6254.424927
962	6254.451919
963	6254.545021
964	6254.599501
965	6254.611614
966	6254.657292
967	6254.776620
968	6254.776636
969	6254.823426
970	6254.829669
971	6254.876614
972	6254.939119
973	6254.987887
974	6254.999940
975	6255.104338
976	6255.104354
977	6255.140944
978	6255.168226
979	6255.265322
980	6255.289547
981	6255.331403
982	6255.379805
983	6255.469699
984	6255.475468
985	6255.487579
986	6255.651611
987	6255.663723
988	6255.675837
989	6255.675854
990	6255.830633
991	6255.867290
992	6255.867307
993	6256.022988
994	6256.023006
995	6256.023017
996	6256.047479
997	6256.208179
998	6256.208196
999	6256.256626
1000	6256.256643
1001	6256.390379
1002	6256.463365
1003	6256.463382
1004	6256.475742
1005	6256.570326
1006	6256.672996
1007	6256.673013
1008	6256.679365
1009	6256.754997
1010	6256.834020
1011	6256.834037
1012	6256.931051
1013	6256.960306
1014	6257.009119
1015	6257.041906
1016	6257.116763
1017	6257.143598
1018	6257.206392
1019	6257.383197
1020	6257.419525
1021	6257.419542
1022	6257.419552
1023	6257.568728
1024	6257.599005
1025	6257.696955
1026	6257.696972
1027	6257.777546
1028	6257.845438
1029	6257.899119
1030	6257.919946
1031	6257.987235
1032	6258.079659
1033	6258.079676
1034	6258.128108
1035	6258.140221
1036	6258.269282
1037	6258.281336
1038	6258.344740
1039	6258.368963
1040	6258.511524
1041	6258.511541
1042	6258.524122
1043	6258.748717
1044	6258.748734
1045	6258.748744
1046	6258.773259
1047	6258.922273
1048	6258.970716
1049	6258.982829
1050	6259.007058
1051	6259.108796
1052	6259.120910
1053	6259.133019
1054	6259.300689
1055	6259.300706
1056	6259.337021
1057	6259.337038
1058	6259.566283
1059	6259.566306
1060	6259.566317
1061	6259.657299
1062	6259.766314
1063	6259.766334
1064	6259.778419
1065	6259.918610
1066	6259.960974
1067	6260.009689
1068	6260.009706
1069	6260.082151
1070	6260.132406
1071	6260.151898
1072	6260.211379
1073	6260.211395
1074	6260.256570
1075	6260.395122
1076	6260.431719
1077	6260.456527
1078	6260.468588
1079	6260.543620
1080	6260.580219
1081	6260.604442
1082	6260.616558
1083	6260.745533
1084	6260.745550
1085	6260.791295
1086	6261.005526
1087	6261.042458
1088	6261.042474
1089	6261.042485
1090	6261.210943
1091	6261.281571
1092	6261.281588
1093	6261.281599
1094	6261.401040
1095	6261.462394
1096	6261.474506
1097	6261.474523
1098	6261.572352
1099	6261.633128
1100	6261.633145
1101	6261.657351
1102	6261.805318
1103	6261.817757
1104	6261.817774
1105	6261.817785
1106	6261.914944
1107	6262.006660
1108	6262.006677
1109	6262.024827
1110	6262.076840
1111	6262.180742
1112	6262.192778
1113	6262.205205
1114	6262.303454
1115	6262.381369
1116	6262.393471
1117	6262.411639
1118	6262.444833
1119	6262.562933
1120	6262.590726
1121	6262.590766
1122	6262.668292
1123	6262.758812
1124	6262.758860
1125	6262.818491
1126	6262.818535
1127	6262.904796
1128	6262.939940
1129	6262.970016
1130	6263.012015
1131	6263.048332
1132	6263.131225
1133	6263.202625
1134	6263.208568
1135	6263.234523
1136	6263.274523
1137	6263.393555
1138	6263.393596
1139	6263.393607
1140	6263.516971
1141	6263.614124
1142	6263.614164
1143	6263.614176
1144	6263.715912
1145	6263.786918
1146	6263.786958
1147	6263.800364
1148	6263.985256
1149	6264.021583
1150	6264.021601
1151	6264.021613
1152	6264.200136
1153	6264.248581
1154	6264.272801
1155	6264.272818
1156	6264.377582
1157	6264.414450
1158	6264.426560
1159	6264.450783
1160	6264.618804
1161	6264.618822
1162	6264.631231
1163	6264.631246
1164	6264.774306
1165	6264.823239
1166	6264.823256
1167	6264.835711
1168	6264.974788
1169	6264.998960
1170	6265.023181
1171	6265.062861
1172	6265.110682
1173	6265.166231
1174	6265.201993
1175	6265.273447
1176	6265.313467
1177	6265.342278
1178	6265.454885
1179	6265.454901
1180	6265.454911
1181	6265.561939
1182	6265.616421
1183	6265.689086
1184	6265.689102
1185	6265.780991
1186	6265.854729
1187	6265.866834
1188	6265.878945
1189	6266.010030
1190	6266.046368
1191	6266.046384
1192	6266.069565
1193	6266.221923
1194	6266.221940
1195	6266.252200
1196	6266.278614
1197	6266.397143
1198	6266.457917
1199	6266.470344
1200	6266.504462
1201	6266.549423
1202	6266.625828
1203	6266.650371
1204	6266.675021
1205	6266.701033
1206	6266.743617
1207	6266.800694
1208	6266.859727
1209	6266.884210
1210	6266.884225
1211	6266.960339
1212	6267.008791
1213	6267.021386
1214	6267.057766
1215	6267.099990
1216	6267.180589
1217	6267.237058
1218	6267.267322
1219	6267.291544
1220	6267.386956
1221	6267.403517
1222	6267.403533
1223	6267.492388
1224	6267.555755
1225	6267.623798
1226	6267.635908
1227	6267.648021
1228	6267.752203
1229	6267.752219
1230	6267.789396
1231	6267.849725
1232	6267.953233
1233	6267.953250
1234	6267.953260
1235	6268.019748
1236	6268.118052
1237	6268.118068
1238	6268.168176
1239	6268.329758
1240	6268.329781
1241	6268.329791
1242	6268.341866
1243	6268.451991
1244	6268.524669
1245	6268.549153
1246	6268.671460
1247	6268.671477
1248	6268.683571
1249	6268.726543
1250	6268.834761
1251	6268.883472
1252	6268.883487
1253	6268.927047
1254	6269.034528
1255	6269.034546
1256	6269.052621
1257	6269.129419
1258	6269.265407
1259	6269.265426
1260	6269.265436
1261	6269.377746
1262	6269.433100
1263	6269.478778
1264	6269.497262
1265	6269.572864
1266	6269.628582
1267	6269.628598
1268	6269.663989
1269	6269.802078
1270	6269.826307
1271	6269.838737
1272	6269.886227
1273	6270.048641
1274	6270.048659
1275	6270.048669
1276	6270.060676
1277	6270.268008
1278	6270.268037
1279	6270.268048
1280	6270.303905
1281	6270.479938
1282	6270.479957
1283	6270.479968
1284	6270.628778
1285	6270.658773
1286	6270.682998
1287	6270.695433
1288	6270.811302
1289	6270.857879
1290	6270.857896
1291	6270.894800
1292	6271.036102
1293	6271.036121
1294	6271.048240
1295	6271.072436
1296	6271.221449
1297	6271.221466
1298	6271.245674
1299	6271.281396
1300	6271.344335
1301	6271.415997
1302	6271.416013
1303	6271.491945
1304	6271.551908
1305	6271.653378
1306	6271.653398
1307	6271.679717
1308	6271.721147
1309	6271.783793
1310	6271.807960
1311	6271.869921
1312	6271.906838
1313	6271.955232
1314	6271.967665
1315	6272.049825
1316	6272.135975
1317	6272.141755
1318	6272.153862
1319	6272.247903
1320	6272.314871
1321	6272.327296
1322	6272.404984
1323	6272.452724
1324	6272.452745
1325	6272.520501
1326	6272.677111
1327	6272.677128
1328	6272.677138
1329	6272.689547
1330	6272.850988
1331	6272.911542
1332	6272.911559
1333	6272.968532
1334	6272.968550
1335	6273.074897
1336	6273.074913
1337	6273.148413
1338	6273.218869
1339	6273.261237
1340	6273.261253
1341	6273.334806
1342	6273.430477
1343	6273.472492
1344	6273.581331
1345	6273.581349
1346	6273.581359
1347	6273.652082
1348	6273.733323
1349	6273.733339
1350	6273.757803
1351	6273.864024
1352	6273.894613
1353	6273.894629
1354	6273.965371
1355	6274.038256
1356	6274.064422
1357	6274.064440
1358	6274.120571
1359	6274.185632
1360	6274.197667
1361	6274.360485
1362	6274.360503
1363	6274.384709
1364	6274.384725
1365	6274.447295
1366	6274.553418
1367	6274.565854
1368	6274.588975
1369	6274.719357
1370	6274.734099
1371	6274.783385
1372	6274.795446
1373	6274.887051
1374	6274.887067
1375	6274.899004
1376	6274.948243
1377	6275.026855
1378	6275.032626
1379	6275.075091
1380	6275.136070
1381	6275.177025
1382	6275.225244
1383	6275.270534
1384	6275.314553
1385	6275.326980
1386	6275.398591
1387	6275.459576
1388	6275.472047
1389	6275.557219
1390	6275.585062
1391	6275.651713
1392	6275.651731
1393	6275.689862
1394	6275.739264
1395	6275.802134
1396	6275.802153
1397	6275.890058
1398	6275.941659
1399	6275.974228
1400	6276.053769
1401	6276.053786
1402	6276.124123
1403	6276.140296
1404	6276.207472
1405	6276.207489
1406	6276.311593
1407	6276.360884
1408	6276.360901
1409	6276.397164
1410	6276.514371
1411	6276.539170
1412	6276.551546
1413	6276.575986
1414	6276.633743
1415	6276.741101
1416	6276.741118
1417	6276.811438
1418	6276.877580
1419	6276.932071
1420	6276.932087
1421	6277.015685
1422	6277.088901
1423	6277.088917
1424	6277.137929
1425	6277.137946
1426	6277.289286
1427	6277.313509
1428	6277.313526
1429	6277.350772
1430	6277.458574
1431	6277.483073
1432	6277.556586
1433	6277.556602
1434	6277.659034
1435	6277.659063
1436	6277.703298
1437	6277.721387
1438	6277.808001
1439	6277.881261
1440	6277.881279
1441	6277.956753
1442	6277.971665
1443	6278.117745
1444	6278.117762
1445	6278.117773
1446	6278.141967
1447	6278.325299
1448	6278.325316
1449	6278.325327
1450	6278.337405
1451	6278.566377
1452	6278.566411
1453	6278.566422
1454	6278.634258
1455	6278.736960
1456	6278.761187
1457	6278.773301
1458	6278.817929
1459	6278.934510
1460	6278.946622
1461	6278.946639
1462	6279.033519
1463	6279.129442
1464	6279.183658
1465	6279.183675
1466	6279.195770
1467	6279.282971
1468	6279.361706
1469	6279.373721
1470	6279.410494
1471	6279.511275
1472	6279.511293
1473	6279.524191
1474	6279.548402
1475	6279.705799
1476	6279.754774
1477	6279.766887
1478	6279.976321
1479	6279.976338
1480	6279.988919
1481	6280.001398
1482	6280.166253
1483	6280.166272
1484	6280.191811
1485	6280.211681
1486	6280.272112
1487	6280.337907
1488	6280.402670
1489	6280.402687
1490	6280.434447
1491	6280.479906
1492	6280.663300
1493	6280.663318
1494	6280.663328
1495	6280.761644
1496	6280.883295
1497	6280.895727
1498	6280.895743
1499	6281.053105
1500	6281.107323
1501	6281.137600
1502	6281.143975
1503	6281.245635
1504	6281.294346
1505	6281.306456
1506	6281.306472
1507	6281.399592
1508	6281.518489
1509	6281.518509
1510	6281.531401
1511	6281.665190
1512	6281.713636
1513	6281.713653
1514	6281.732065
1515	6281.829164
1516	6281.972024
1517	6281.972041
1518	6281.972051
1519	6281.986390
1520	6282.166858
1521	6282.178968
1522	6282.178984
1523	6282.203197
1524	6282.350064
1525	6282.350081
1526	6282.350091
1527	6282.471978
1528	6282.508308
1529	6282.520424
1530	6282.557019
1531	6282.649028
1532	6282.697419
1533	6282.757014
1534	6282.775881
1535	6282.824928
1536	6282.874136
1537	6282.904130
1538	6282.929882
1539	6283.019324
1540	6283.056711
1541	6283.068824
1542	6283.152992
1543	6283.227989
1544	6283.240106
1545	6283.316153
1546	6283.328852
1547	6283.407776
1548	6283.407792
1549	6283.444422
1550	6283.468650
1551	6283.591545
1552	6283.628409
1553	6283.640522
1554	6283.798629
1555	6283.798646
1556	6283.822801
1557	6283.859662
1558	6283.892302
1559	6284.003832
1560	6284.040913
1561	6284.040930
1562	6284.053092
1563	6284.141761
1564	6284.275518
1565	6284.275535
1566	6284.281571
1567	6284.385254
1568	6284.449801
1569	6284.481979
1570	6284.519560
1571	6284.562185
1572	6284.663326
1573	6284.683151
1574	6284.706176
1575	6284.757363
1576	6284.848327
1577	6284.848344
1578	6284.872550
1579	6285.131275
1580	6285.143387
1581	6285.143404
1582	6285.143414
1583	6285.353500
1584	6285.365616
1585	6285.365633
1586	6285.377724
1587	6285.525099
1588	6285.549322
1589	6285.549339
1590	6285.574829
1591	6285.691356
1592	6285.758236
1593	6285.758252
1594	6285.758262
1595	6285.940359
1596	6285.940377
1597	6285.940387
1598	6285.981365
1599	6286.089545
1600	6286.119825
1601	6286.144109
1602	6286.156159
1603	6286.219217
1604	6286.306635
1605	6286.306652
1606	6286.368046
1607	6286.368062
1608	6286.460012
1609	6286.483437
1610	6286.518228
1611	6286.554229
1612	6286.579039
1613	6286.654366
1614	6286.672518
1615	6286.758095
1616	6286.758111
1617	6286.850203
1618	6286.895345
1619	6286.925343
1620	6286.970510
1621	6287.064975
1622	6287.100285
1623	6287.124509
1624	6287.179297
1625	6287.188887
1626	6287.237334
1627	6287.262143
1628	6287.337168
1629	6287.349284
1630	6287.428920
1631	6287.486895
1632	6287.499269
1633	6287.499286
1634	6287.688775
1635	6287.725117
1636	6287.725133
1637	6287.743600
1638	6287.942247
1639	6287.942265
1640	6287.942275
1641	6287.942285
1642	6288.060163
1643	6288.187601
1644	6288.187617
1645	6288.187627
1646	6288.231328
1647	6288.408792
1648	6288.408815
1649	6288.408825
1650	6288.559983
1651	6288.608429
1652	6288.620550
1653	6288.632656
1654	6288.731730
1655	6288.786212
1656	6288.786229
1657	6288.810753
1658	6288.973391
1659	6288.997876
1660	6288.997892
1661	6289.028475
1662	6289.080866
1663	6289.202307
1664	6289.202325
1665	6289.202336
1666	6289.226793
1667	6289.323206
1668	6289.384077
1669	6289.408248
1670	6289.466279
1671	6289.524802
1672	6289.585582
1673	6289.585598
1674	6289.621872
1675	6289.712847
1676	6289.761298
1677	6289.761314
1678	6289.797952
1679	6289.892953
1680	6289.892970
1681	6289.929653
1682	6289.941712
1683	6290.083961
1684	6290.120558
1685	6290.120575
1686	6290.120585
1687	6290.250601
1688	6290.317478
1689	6290.341697
1690	6290.341714
1691	6290.380140
1692	6290.464258
1693	6290.513280
1694	6290.513297
1695	6290.574516
1696	6290.639681
1697	6290.690107
1698	6290.690124
1699	6290.783944
1700	6290.828976
1701	6290.853143
1702	6290.874331
1703	6290.967235
1704	6291.003886
1705	6291.003902
1706	6291.064765
1707	6291.170298
1708	6291.182406
1709	6291.212940
1710	6291.312197
1711	6291.378811
1712	6291.378830
1713	6291.391731
1714	6291.525057
1715	6291.525076
1716	6291.579567
1717	6291.625783
1718	6291.692373
1719	6291.710492
1720	6291.759547
1721	6291.792869
1722	6291.847324
1723	6291.847341
1724	6291.916404
1725	6291.960104
1726	6291.999262
1727	6292.011693
1728	6292.058836
1729	6292.152633
1730	6292.164749
1731	6292.189242
1732	6292.213461
1733	6292.308955
1734	6292.389675
1735	6292.389692
1736	6292.439861
1737	6292.516325
1738	6292.516343
1739	6292.553139
1740	6292.670475
1741	6292.713130
1742	6292.713147
1743	6292.746109
1744	6292.852965
1745	6292.919584
1746	6292.919601
1747	6293.107432
1748	6293.107470
1749	6293.131634
1750	6293.131651
1751	6293.303677
1752	6293.315827
1753	6293.388757
1754	6293.388774
1755	6293.481195
1756	6293.493303
1757	6293.553086
1758	6293.602292
1759	6293.654777
1760	6293.672655
1761	6293.714125
1762	6293.798742
1763	6293.798759
1764	6293.858935
1765	6293.918103
1766	6294.027989
1767	6294.028007
1768	6294.028018
1769	6294.067710
1770	6294.209538
1771	6294.254379
1772	6294.254396
1773	6294.346082
1774	6294.401336
1775	6294.413491
1776	6294.437715
1777	6294.491684
1778	6294.621975
1779	6294.621992
1780	6294.634087
1781	6294.652053
1782	6294.805644
1783	6294.805661
1784	6294.842247
1785	6294.940654
1786	6294.955117
1787	6295.062555
1788	6295.062581
1789	6295.074975
1790	6295.099673
1791	6295.234525
1792	6295.246623
1793	6295.277579
1794	6295.323645
1795	6295.382686
1796	6295.382703
1797	6295.486283
1798	6295.547100
1799	6295.547117
1800	6295.559530
1801	6295.717128
1802	6295.765843
1803	6295.765859
1804	6295.814046
1805	6295.876827
1806	6295.931568
1807	6295.955793
1808	6296.053580
1809	6296.078261
1810	6296.090741
1811	6296.103112
1812	6296.257657
1813	6296.257675
1814	6296.282142
1815	6296.365693
1816	6296.427827
1817	6296.496579
1818	6296.496597
1819	6296.562365
1820	6296.562383
1821	6296.741348
1822	6296.743495
1823	6296.755551
1824	6296.895726
1825	6296.919949
1826	6296.919965
1827	6296.932064
1828	6297.112802
1829	6297.124918
1830	6297.143120
1831	6297.143137
1832	6297.324971
1833	6297.330973
1834	6297.330989
1835	6297.426719
1836	6297.501678
1837	6297.562502
1838	6297.574615
1839	6297.586724
1840	6297.693383
1841	6297.766530
1842	6297.766546
1843	6297.766557
1844	6297.860602
1845	6297.979797
1846	6297.979815
1847	6298.018792
1848	6298.145600
1849	6298.181776
1850	6298.193891
1851	6298.230805
1852	6298.304889
1853	6298.339570
1854	6298.339586
1855	6298.404293
1856	6298.510151
1857	6298.510168
1858	6298.576575
1859	6298.598132
1860	6298.711460
1861	6298.711476
1862	6298.711487
1863	6298.875860
1864	6298.900407
1865	6298.900423
1866	6298.924614
1867	6299.085652
1868	6299.085670
1869	6299.097763
1870	6299.121987
1871	6299.233050
1872	6299.306980
1873	6299.325129
1874	6299.368930
1875	6299.403898
1876	6299.464989
1877	6299.465005
1878	6299.551689
1879	6299.551706
1880	6299.638397
1881	6299.650990
1882	6299.717811
1883	6299.826838
1884	6299.875815
1885	6299.900037
1886	6299.912149
1887	6299.986458
1888	6300.035408
1889	6300.139206
1890	6300.139228
1891	6300.151803
1892	6300.176391
1893	6300.359294
1894	6300.359314
1895	6300.365346
1896	6300.387997
1897	6300.549182
1898	6300.561235
1899	6300.585459
1900	6300.585475
1901	6300.772905
1902	6300.772923
1903	6300.772933
1904	6300.772943
1905	6301.030889
1906	6301.042996
1907	6301.055108
1908	6301.250934
1909	6301.250950
1910	6301.275421
1911	6301.299644
1912	6301.401863
1913	6301.401880
1914	6301.439431
1915	6301.611941
1916	6301.624000
1917	6301.624017
1918	6301.624027
1919	6301.804441
1920	6301.816555
1921	6301.828666
1922	6301.865267
1923	6301.931649
1924	6302.004836
1925	6302.053769
1926	6302.053786
1927	6302.112006
1928	6302.154093
1929	6302.171980
1930	6302.257343
1931	6302.257359
1932	6302.321907
1933	6302.426307
1934	6302.438370
1935	6302.438387
1936	6302.542306
1937	6302.636094
1938	6302.636110
1939	6302.660587
1940	6302.696924
1941	6302.856168
1942	6302.880433
1943	6302.892551
1944	6302.904978
1945	6303.005543
1946	6303.059246
1947	6303.071362
1948	6303.083789
1949	6303.193853
1950	6303.205962
1951	6303.205978
1952	6303.300204
1953	6303.380699
1954	6303.380715
1955	6303.380726
1956	6303.554274
1957	6303.554292
1958	6303.554303
1959	6303.576062
1960	6303.777056
1961	6303.777073
1962	6303.789116
1963	6303.856700
1964	6304.027064
1965	6304.027087
1966	6304.027098
1967	6304.039663
1968	6304.274261
1969	6304.274279
1970	6304.274290
1971	6304.446566
1972	6304.470735
1973	6304.470751
1974	6304.494962
1975	6304.666271
1976	6304.666288
1977	6304.666299
1978	6304.725138
1979	6304.890932
1980	6304.890950
1981	6304.890960
1982	6304.994499
1983	6305.037151
1984	6305.073752
1985	6305.073768
1986	6305.190654
1987	6305.240476
1988	6305.240493
1989	6305.240504
1990	6305.374476
1991	6305.399317
1992	6305.435569
1993	6305.435586
1994	6305.515284
1995	6305.557965
1996	6305.605262
1997	6305.621174
1998	6305.659324
1999	6305.700252
2000	6305.766159
2001	6305.790649
2002	6305.821944
2003	6305.884240
2004	6305.955429
2005	6305.977445
2006	6306.049955
2007	6306.123218
2008	6306.123234
2009	6306.123245
2010	6306.148875
2011	6306.304453
2012	6306.304490
2013	6306.304501
2014	6306.346351
2015	6306.557167
2016	6306.557187
2017	6306.557197
2018	6306.573598
2019	6306.781701
2020	6306.781719
2021	6306.781730
2022	6306.848361
2023	6307.034686
2024	6307.046794
2025	6307.046810
2026	6307.058900
2027	6307.190971
2028	6307.239429
2029	6307.251528
2030	6307.361786
2031	6307.447684
2032	6307.447701
2033	6307.447711
2034	6307.526321
2035	6307.593499
2036	6307.618196
2037	6307.630623
2038	6307.701755
2039	6307.784712
2040	6307.821880
2041	6307.821898
2042	6307.931026
2043	6307.997747
2044	6308.052255
2045	6308.088824
2046	6308.121496
2047	6308.186954
2048	6308.254172
2049	6308.278717
2050	6308.315717
2051	6308.315733
2052	6308.377544
2053	6308.402558
2054	6308.430083
2055	6308.492458
2056	6308.520015
2057	6308.570356
2058	6308.600344
2059	6308.670999
2060	6308.695838
2061	6308.801584
2062	6308.838186
2063	6308.838202
2064	6308.850620
2065	6309.050887
2066	6309.062967
2067	6309.099568
2068	6309.099585
2069	6309.253362
2070	6309.253393
2071	6309.277892
2072	6309.368916
2073	6309.442836
2074	6309.503662
2075	6309.503681
2076	6309.624549
2077	6309.624576
2078	6309.733808
2079	6309.733824
2080	6309.785623
2081	6309.936748
2082	6309.936765
2083	6309.948862
2084	6310.004594
2085	6310.120671
2086	6310.120687
2087	6310.127986
2088	6310.276884
2089	6310.276907
2090	6310.276917
2091	6310.301111
2092	6310.410854
2093	6310.532228
2094	6310.532258
2095	6310.544331
2096	6310.643872
2097	6310.727555
2098	6310.727573
2099	6310.727583
2100	6310.822899
2101	6310.881222
2102	6310.899391
2103	6310.923616
2104	6311.026150
2105	6311.086923
2106	6311.086961
2107	6311.099013
2108	6311.162441
2109	6311.259547
2110	6311.259588
2111	6311.308947
2112	6311.464597
2113	6311.477163
2114	6311.489324
2115	6311.501439
2116	6311.680625
2117	6311.680656
2118	6311.680667
2119	6311.680677
2120	6311.905865
2121	6311.905883
2122	6311.905894
2123	6311.905904
2124	6312.140922
2125	6312.140942
2126	6312.153026
2127	6312.301707
2128	6312.301724
2129	6312.368589
2130	6312.380698
2131	6312.469836
2132	6312.469853
2133	6312.520196
2134	6312.621176
2135	6312.722561
2136	6312.722580
2137	6312.728605
2138	6312.804815
2139	6312.932913
2140	6312.932930
2141	6312.932940
2142	6312.981428
2143	6313.128377
2144	6313.128393
2145	6313.128404
2146	6313.276158
2147	6313.349356
2148	6313.349373
2149	6313.349383
2150	6313.545171
2151	6313.557280
2152	6313.557296
2153	6313.557306
2154	6313.693101
2155	6313.729428
2156	6313.753974
2157	6313.753990
2158	6313.876612
2159	6313.888722
2160	6313.962203
2161	6313.962220
2162	6314.092053
2163	6314.141025
2164	6314.141042
2165	6314.199932
2166	6314.257847
2167	6314.342966
2168	6314.342982
2169	6314.416007
2170	6314.550263
2171	6314.586596
2172	6314.586612
2173	6314.586623
2174	6314.748782
2175	6314.785424
2176	6314.785441
2177	6314.834035
2178	6314.961214
2179	6315.046003
2180	6315.046021
2181	6315.080873
2182	6315.233074
2183	6315.257552
2184	6315.257568
2185	6315.282262
2186	6315.323124
2187	6315.413848
2188	6315.438334
2189	6315.474938
2190	6315.632312
2191	6315.632331
2192	6315.681549
2193	6315.693661
2194	6315.799321
2195	6315.799337
2196	6315.837240
2197	6315.953620
2198	6316.027903
2199	6316.039987
2200	6316.040003
2201	6316.092567
2202	6316.179412
2203	6316.191527
2204	6316.228124
2205	6316.280984
2206	6316.384141
2207	6316.384163
2208	6316.384174
2209	6316.442135
2210	6316.526296
2211	6316.533039
2212	6316.556602
2213	6316.633602
2214	6316.675854
2215	6316.675870
2216	6316.778961
2217	6316.798407
2218	6316.858847
2219	6316.904859
2220	6316.979468
2221	6316.991901
2222	6317.040612
2223	6317.056008
2224	6317.125720
2225	6317.144006
2226	6317.203948
2227	6317.253190
2228	6317.265306
2229	6317.307115
2230	6317.365076
2231	6317.450649
2232	6317.450666
2233	6317.505846
2234	6317.505864
2235	6317.616485
2236	6317.616502
2237	6317.670236
2238	6317.694282
2239	6317.782388
2240	6317.855790
2241	6317.884933
2242	6317.884950
2243	6317.931580
2244	6318.013495
2245	6318.040091
2246	6318.085864
2247	6318.184419
2248	6318.184436
2249	6318.196577
2250	6318.292390
2251	6318.346872
2252	6318.346889
2253	6318.381471
2254	6318.405114
2255	6318.511614
2256	6318.518003
2257	6318.582256
2258	6318.591038
2259	6318.649437
2260	6318.661806
2261	6318.784490
2262	6318.796606
2263	6318.808717
2264	6318.854818
2265	6318.977252
2266	6318.977268
2267	6319.001798
2268	6319.016117
2269	6319.169851
2270	6319.200406
2271	6319.200423
2272	6319.224925
2273	6319.301695
2274	6319.437030
2275	6319.461252
2276	6319.461268
2277	6319.605820
2278	6319.672964
2279	6319.672980
2280	6319.679020
2281	6319.787218
2282	6319.868269
2283	6319.868285
2284	6319.868296
2285	6319.928093
2286	6320.045418
2287	6320.045434
2288	6320.045445
2289	6320.113695
2290	6320.177539
2291	6320.186420
2292	6320.322466
2293	6320.347535
2294	6320.428923
2295	6320.434696
2296	6320.560608
2297	6320.584841
2298	6320.584858
2299	6320.757875
2300	6320.757892
2301	6320.794213
2302	6320.794230
2303	6320.935405
2304	6320.953287
2305	6321.031155
2306	6321.031171
2307	6321.073006
2308	6321.085824
2309	6321.247808
2310	6321.259864
2311	6321.259880
2312	6321.295950
2313	6321.518127
2314	6321.518146
2315	6321.518157
2316	6321.687543
2317	6321.687563
2318	6321.711714
2319	6321.724149
2320	6321.842310
2321	6321.908968
2322	6321.956032
2323	6321.956049
2324	6322.062524
2325	6322.074960
2326	6322.099132
2327	6322.149300
2328	6322.256631
2329	6322.256648
2330	6322.268691
2331	6322.362498
2332	6322.465017
2333	6322.465033
2334	6322.465043
2335	6322.521611
2336	6322.639266
2337	6322.653985
2338	6322.707776
2339	6322.707792
2340	6322.760697
2341	6322.795607
2342	6322.884356
2343	6322.884372
2344	6322.953127
2345	6322.987825
2346	6323.068907
2347	6323.105556
2348	6323.141842
2349	6323.166591
2350	6323.245466
2351	6323.282268
2352	6323.294387
2353	6323.352044
2354	6323.385141
2355	6323.441584
2356	6323.465916
2357	6323.490398
2358	6323.590669
2359	6323.590686
2360	6323.665832
2361	6323.665848
2362	6323.737621
2363	6323.749730
2364	6323.830520
2365	6323.849148
2366	6323.911156
2367	6323.935701
2368	6323.984091
2369	6324.044965
2370	6324.044983
2371	6324.137609
2372	6324.213640
2373	6324.213656
2374	6324.267060
2375	6324.304351
2376	6324.327931
2377	6324.390308
2378	6324.417030
2379	6324.439019
2380	6324.535814
2381	6324.589010
2382	6324.601608
2383	6324.662058
2384	6324.662075
2385	6324.716601
2386	6324.786904
2387	6324.786920
2388	6324.823713
2389	6324.883643
2390	6324.995146
2391	6324.995163
2392	6325.007257
2393	6325.155463
2394	6325.185749
2395	6325.185765
2396	6325.208434
2397	6325.393408
2398	6325.405517
2399	6325.405532
2400	6325.430223
2401	6325.629848
2402	6325.666505
2403	6325.678553
2404	6325.690674
2405	6325.714898
2406	6325.796319
2407	6325.869839
2408	6325.869856
2409	6325.919552
2410	6325.919568
2411	6326.021720
2412	6326.034148
2413	6326.137908
2414	6326.137928
2415	6326.182050
2416	6326.301342
2417	6326.331338
2418	6326.373733
2419	6326.385842
2420	6326.459178
2421	6326.538362
2422	6326.585639
2423	6326.585657
2424	6326.625543
